…
    ## `summarise()` ungrouping output (override with `.groups` argument)

``` r
df_avg
```

    ## # A tibble: 187 x 5
    ##    region              totalConfirm totalDeath   long   lat
    ##    <chr>                      <dbl>      <dbl>  <dbl> <dbl>
    ##  1 Afghanistan              1936390      49098  67.7   33.9
    ##  2 Albania                   196702       5708  20.2   41.2
    ##  3 Algeria                  1179755      77972   1.66  28.0
    ##  4 Andorra                    94404       5423   1.52  42.5
    ##  5 Angola                     22662       1078  17.9  -11.2
    ##  6 Antigua and Barbuda         4487        326 -61.8   17.1
    ##  7 Argentina                4450658      97749 -63.6  -38.4
    ##  8 Armenia                  1587173      27089  45.0   40.1
    ##  9 Australia                 960247      11387 141.   -32.1
    ## 10 Austria                  2034986      71390  14.6   47.5
    ## # … with 177 more rows
…
    ## `summarise()` ungrouping output (override with `.groups` argument)

``` r
df_temp_avg
```

    ## # A tibble: 173 x 2
    ##    region              avgOct
    ##    <chr>                <dbl>
    ##  1 Afghanistan           13.1
    ##  2 Albania               16  
    ##  3 Algeria               23.7
    ##  4 Angola                25.2
    ##  5 Antigua and Barbuda   27.5
    ##  6 Argentina             16.1
    ##  7 Armenia               13.8
    ##  8 Aruba                 28.7
    ##  9 Australia             19.6
    ## 10 Austria               10.2
    ## # … with 163 more rows
…
  
names(df_cleancovid)[names(df_cleancovid) == "2020-07-01"] <- "Confirmed_start"
names(df_cleancovid)[names(df_cleancovid) == "2020-07-27"] <- "Confirmed_end"

df_cleancovid
```

    ## # A tibble: 261 x 6
    ## # Groups:   Province_State [79]
    ##    Province_State  Country_Region   Lat WHO_region Confirmed_start Confirmed_end
    ##    <chr>           <chr>          <dbl> <chr>                <dbl>         <dbl>
    ##  1 <NA>            Afghanistan     33.9 Eastern M…           31836         36263
    ##  2 <NA>            Albania         41.2 Europe                2580          4880
    ##  3 <NA>            Algeria         28.0 Africa               14272         27973
    ##  4 <NA>            Andorra         42.5 Europe                 855           907
    ##  5 <NA>            Angola         -11.2 Africa                 291           950
    ##  6 <NA>            Antigua and B…  17.1 Americas                69            86
    ##  7 <NA>            Argentina      -38.4 Americas             67197        167416
    ##  8 <NA>            Armenia         40.1 Europe               26065         37390
    ##  9 Australian Cap… Australia      -35.5 Western P…             108           113
    ## 10 New South Wales Australia      -33.9 Western P…            3211          3699
    ## # … with 251 more rows
…
``` r
covid_sum_july <- covid_sum_july %>% 
  rename(
    logCasesJuly=logCases,
    meanIncidenceRateJuly=meanIncidenceRate
  )
```

``` r
covid_sum_july
```

    ## # A tibble: 186 x 3
    ##    region              logCasesJuly meanIncidenceRateJuly
    ##    <chr>                      <dbl>                 <dbl>
    ##  1 Afghanistan                10.5                  93.2 
    ##  2 Albania                     8.49                170.  
    ##  3 Algeria                    10.2                  63.8 
    ##  4 Andorra                     6.81               1174.  
    ##  5 Angola                      6.86                  2.89
    ##  6 Antigua and Barbuda         4.45                 87.8 
    ##  7 Argentina                  12.0                 370.  
    ##  8 Armenia                    10.5                1262.  
    ##  9 Australia                   9.64                 41.9 
    ## 10 Austria                     9.93                228.  
    ## # … with 176 more rows

``` r
covid_tmp <- left_join(covid_sum_july, temp, by = "region")
```

``` r
covid_tmp 
```

    ## # A tibble: 186 x 4
    ##    region              logCasesJuly meanIncidenceRateJuly july_temp
    ##    <chr>                      <dbl>                 <dbl>     <dbl>
    ##  1 Afghanistan                10.5                  93.2      25.3 
    ##  2 Albania                     8.49                170.       20.5 
    ##  3 Algeria                    10.2                  63.8      32.5 
    ##  4 Andorra                     6.81               1174.       NA   
    ##  5 Angola                      6.86                  2.89     17.9 
    ##  6 Antigua and Barbuda         4.45                 87.8      NA   
    ##  7 Argentina                  12.0                 370.        7.42
    ##  8 Armenia                    10.5                1262.       19.8 
    ##  9 Australia                   9.64                 41.9      14.0 
    ## 10 Austria                     9.93                228.       15.3 
    ## # … with 176 more rows
…
**Case Study: China** The reason for focusing on a single country: this
minimizes the effect of government policies and oversea travel, since
the same policies and advertising of anti-covid measures are applied
throughout China.

``` r
df_covidChina <- df_covidTemp %>%
  filter(`Country/Region` == "China") %>% 
  inner_join(df_popChina, by = "Province/State") 
df_covidChina
```

    ## # A tibble: 5,828 x 11
    ##    `Province/State` `Country/Region`   Lat  Long Date       Confirmed Deaths
    ##    <chr>            <chr>            <dbl> <dbl> <date>         <dbl>  <dbl>
    ##  1 Anhui            China             31.8  117. 2020-01-22         1      0
    ##  2 Beijing          China             40.2  116. 2020-01-22        14      0
    ##  3 Chongqing        China             30.1  108. 2020-01-22         6      0
    ##  4 Fujian           China             26.1  118. 2020-01-22         1      0
    ##  5 Gansu            China             35.8  104. 2020-01-22         0      0
    ##  6 Guangdong        China             23.3  113. 2020-01-22        26      0
    ##  7 Guangxi          China             23.8  109. 2020-01-22         2      0
    ##  8 Guizhou          China             26.8  107. 2020-01-22         1      0
    ##  9 Hainan           China             19.2  110. 2020-01-22         4      0
    ## 10 Hebei            China             39.5  116. 2020-01-22         1      0
    ## # … with 5,818 more rows, and 4 more variables: Recovered <dbl>, Active <dbl>,
    ## #   `WHO Region` <chr>, `Pop (k)` <dbl>
…
